{
    "format": {
        "version": "1.0"
    },
    "shaders": {
        "Main shader": {
            "parameters": {
                "Common Parameters": {
                    "ao_intensity": 0.6100000143051147,
                    "emissive_intensity": 54.599998474121094,
                    "horizonFade": 0.9800000190734863,
                    "nbSamples": 16
                },
                "Parallax Occlusion Mapping": {
                    "maxPOMSamples": 13,
                    "minPOMSamples": 13,
                    "pomStrength": 2.309999942779541,
                    "usePOM": true
                },
                "Subsurface Scattering Parameters": {
                    "sssColor": [
                        1,
                        1,
                        1
                    ],
                    "sssEnabled": true,
                    "sssScale": 0.49000000953674316,
                    "sssType": 1
                }
            },
            "shader": "pbr-metal-rough",
            "shaderInstance": "Main shader"
        }
    },
    "texturesets": {
        "DefaultMaterial": {
            "shader": "Main shader"
        }
    }
}
