%YAML 1.1
%TAG !u! tag:unity3d.com,2011:
--- !u!1 &3212956886784242413
GameObject:
  m_ObjectHideFlags: 0
  m_CorrespondingSourceObject: {fileID: 0}
  m_PrefabInstance: {fileID: 0}
  m_PrefabAsset: {fileID: 0}
  serializedVersion: 6
  m_Component:
  - component: {fileID: 3212956886784242410}
  - component: {fileID: 3212956886784242409}
  - component: {fileID: 3212956886784242408}
  - component: {fileID: 3212956886784242415}
  - component: {fileID: 3212956886784242414}
  m_Layer: 0
  m_Name: Stairs
  m_TagString: Untagged
  m_Icon: {fileID: 0}
  m_NavMeshLayer: 0
  m_StaticEditorFlags: 0
  m_IsActive: 1
--- !u!4 &3212956886784242410
Transform:
  m_ObjectHideFlags: 0
  m_CorrespondingSourceObject: {fileID: 0}
  m_PrefabInstance: {fileID: 0}
  m_PrefabAsset: {fileID: 0}
  m_GameObject: {fileID: 3212956886784242413}
  m_LocalRotation: {x: -0, y: 0.70710677, z: -0, w: 0.7071068}
  m_LocalPosition: {x: 84.944, y: 18.136, z: -5.339}
  m_LocalScale: {x: 1, y: 1, z: 1}
  m_Children: []
  m_Father: {fileID: 0}
  m_RootOrder: 0
  m_LocalEulerAnglesHint: {x: 0, y: 0, z: 0}
--- !u!33 &3212956886784242409
MeshFilter:
  m_ObjectHideFlags: 0
  m_CorrespondingSourceObject: {fileID: 0}
  m_PrefabInstance: {fileID: 0}
  m_PrefabAsset: {fileID: 0}
  m_GameObject: {fileID: 3212956886784242413}
  m_Mesh: {fileID: 0}
--- !u!23 &3212956886784242408
MeshRenderer:
  m_ObjectHideFlags: 0
  m_CorrespondingSourceObject: {fileID: 0}
  m_PrefabInstance: {fileID: 0}
  m_PrefabAsset: {fileID: 0}
  m_GameObject: {fileID: 3212956886784242413}
  m_Enabled: 1
  m_CastShadows: 1
  m_ReceiveShadows: 1
  m_DynamicOccludee: 1
  m_MotionVectors: 1
  m_LightProbeUsage: 1
  m_ReflectionProbeUsage: 1
  m_RenderingLayerMask: 1
  m_RendererPriority: 0
  m_Materials:
  - {fileID: 2100000, guid: c22777d6e868e4f2fb421913386b154e, type: 2}
  m_StaticBatchInfo:
    firstSubMesh: 0
    subMeshCount: 0
  m_StaticBatchRoot: {fileID: 0}
  m_ProbeAnchor: {fileID: 0}
  m_LightProbeVolumeOverride: {fileID: 0}
  m_ScaleInLightmap: 1
  m_PreserveUVs: 0
  m_IgnoreNormalsForChartDetection: 0
  m_ImportantGI: 0
  m_StitchLightmapSeams: 1
  m_SelectedEditorRenderState: 2
  m_MinimumChartSize: 4
  m_AutoUVMaxDistance: 0.5
  m_AutoUVMaxAngle: 89
  m_LightmapParameters: {fileID: 0}
  m_SortingLayerID: 0
  m_SortingLayer: 0
  m_SortingOrder: 0
--- !u!114 &3212956886784242415
MonoBehaviour:
  m_ObjectHideFlags: 0
  m_CorrespondingSourceObject: {fileID: 0}
  m_PrefabInstance: {fileID: 0}
  m_PrefabAsset: {fileID: 0}
  m_GameObject: {fileID: 3212956886784242413}
  m_Enabled: 1
  m_EditorHideFlags: 0
  m_Script: {fileID: 11500000, guid: 8233d90336aea43098adf6dbabd606a2, type: 3}
  m_Name: 
  m_EditorClassIdentifier: 
  m_MeshFormatVersion: 1
  m_Faces:
  - m_Indexes: 000000000100000002000000010000000300000002000000
    m_SmoothingGroup: 0
    m_Uv:
      m_UseWorldSpace: 0
      m_FlipU: 0
      m_FlipV: 0
      m_SwapUV: 0
      m_Fill: 1
      m_Scale: {x: 1, y: 1}
      m_Offset: {x: 0, y: 0}
      m_Rotation: 0
      m_Anchor: 9
    m_Material: {fileID: 2100000, guid: c22777d6e868e4f2fb421913386b154e, type: 2}
    m_SubmeshIndex: 0
    m_ManualUV: 0
    elementGroup: 0
    m_TextureGroup: -1
  - m_Indexes: 040000000500000006000000050000000700000006000000
    m_SmoothingGroup: 0
    m_Uv:
      m_UseWorldSpace: 0
      m_FlipU: 0
      m_FlipV: 0
      m_SwapUV: 0
      m_Fill: 1
      m_Scale: {x: 1, y: 1}
      m_Offset: {x: 0, y: 0}
      m_Rotation: 0
      m_Anchor: 9
    m_Material: {fileID: 2100000, guid: c22777d6e868e4f2fb421913386b154e, type: 2}
    m_SubmeshIndex: 0
    m_ManualUV: 0
    elementGroup: 0
    m_TextureGroup: -1
  - m_Indexes: 08000000090000000a000000090000000b0000000a000000
    m_SmoothingGroup: 0
    m_Uv:
      m_UseWorldSpace: 0
      m_FlipU: 0
      m_FlipV: 0
      m_SwapUV: 0
      m_Fill: 1
      m_Scale: {x: 1, y: 1}
      m_Offset: {x: 0, y: 0}
      m_Rotation: 0
      m_Anchor: 9
    m_Material: {fileID: 2100000, guid: c22777d6e868e4f2fb421913386b154e, type: 2}
    m_SubmeshIndex: 0
    m_ManualUV: 0
    elementGroup: 0
    m_TextureGroup: -1
  - m_Indexes: 0c0000000d0000000e0000000d0000000f0000000e000000
    m_SmoothingGroup: 0
    m_Uv:
      m_UseWorldSpace: 0
      m_FlipU: 0
      m_FlipV: 0
      m_SwapUV: 0
      m_Fill: 1
      m_Scale: {x: 1, y: 1}
      m_Offset: {x: 0, y: 0}
      m_Rotation: 0
      m_Anchor: 9
    m_Material: {fileID: 2100000, guid: c22777d6e868e4f2fb421913386b154e, type: 2}
    m_SubmeshIndex: 0
    m_ManualUV: 0
    elementGroup: 0
    m_TextureGroup: -1
  - m_Indexes: 100000001100000012000000110000001300000012000000
    m_SmoothingGroup: 0
    m_Uv:
      m_UseWorldSpace: 0
      m_FlipU: 0
      m_FlipV: 0
      m_SwapUV: 0
      m_Fill: 1
      m_Scale: {x: 1, y: 1}
      m_Offset: {x: 0, y: 0}
      m_Rotation: 0
      m_Anchor: 9
    m_Material: {fileID: 2100000, guid: c22777d6e868e4f2fb421913386b154e, type: 2}
    m_SubmeshIndex: 0
    m_ManualUV: 0
    elementGroup: 0
    m_TextureGroup: -1
  - m_Indexes: 140000001500000016000000150000001700000016000000
    m_SmoothingGroup: 0
    m_Uv:
      m_UseWorldSpace: 0
      m_FlipU: 0
      m_FlipV: 0
      m_SwapUV: 0
      m_Fill: 1
      m_Scale: {x: 1, y: 1}
      m_Offset: {x: 0, y: 0}
      m_Rotation: 0
      m_Anchor: 9
    m_Material: {fileID: 2100000, guid: c22777d6e868e4f2fb421913386b154e, type: 2}
    m_SubmeshIndex: 0
    m_ManualUV: 0
    elementGroup: 0
    m_TextureGroup: -1
  - m_Indexes: 18000000190000001a000000190000001b0000001a000000
    m_SmoothingGroup: 0
    m_Uv:
      m_UseWorldSpace: 0
      m_FlipU: 0
      m_FlipV: 0
      m_SwapUV: 0
      m_Fill: 1
      m_Scale: {x: 1, y: 1}
      m_Offset: {x: 0, y: 0}
      m_Rotation: 0
      m_Anchor: 9
    m_Material: {fileID: 2100000, guid: c22777d6e868e4f2fb421913386b154e, type: 2}
    m_SubmeshIndex: 0
    m_ManualUV: 0
    elementGroup: 0
    m_TextureGroup: -1
  - m_Indexes: 1c0000001d0000001e0000001d0000001f0000001e000000
    m_SmoothingGroup: 0
    m_Uv:
      m_UseWorldSpace: 0
      m_FlipU: 0
      m_FlipV: 0
      m_SwapUV: 0
      m_Fill: 1
      m_Scale: {x: 1, y: 1}
      m_Offset: {x: 0, y: 0}
      m_Rotation: 0
      m_Anchor: 9
    m_Material: {fileID: 2100000, guid: c22777d6e868e4f2fb421913386b154e, type: 2}
    m_SubmeshIndex: 0
    m_ManualUV: 0
    elementGroup: 0
    m_TextureGroup: -1
  - m_Indexes: 200000002100000022000000210000002300000022000000
    m_SmoothingGroup: 0
    m_Uv:
      m_UseWorldSpace: 0
      m_FlipU: 0
      m_FlipV: 0
      m_SwapUV: 0
      m_Fill: 1
      m_Scale: {x: 1, y: 1}
      m_Offset: {x: 0, y: 0}
      m_Rotation: 0
      m_Anchor: 9
    m_Material: {fileID: 2100000, guid: c22777d6e868e4f2fb421913386b154e, type: 2}
    m_SubmeshIndex: 0
    m_ManualUV: 0
    elementGroup: 0
    m_TextureGroup: -1
  - m_Indexes: 240000002500000026000000250000002700000026000000
    m_SmoothingGroup: 0
    m_Uv:
      m_UseWorldSpace: 0
      m_FlipU: 0
      m_FlipV: 0
      m_SwapUV: 0
      m_Fill: 1
      m_Scale: {x: 1, y: 1}
      m_Offset: {x: 0, y: 0}
      m_Rotation: 0
      m_Anchor: 9
    m_Material: {fileID: 2100000, guid: c22777d6e868e4f2fb421913386b154e, type: 2}
    m_SubmeshIndex: 0
    m_ManualUV: 0
    elementGroup: 0
    m_TextureGroup: -1
  - m_Indexes: 28000000290000002a000000290000002b0000002a000000
    m_SmoothingGroup: 0
    m_Uv:
      m_UseWorldSpace: 0
      m_FlipU: 0
      m_FlipV: 0
      m_SwapUV: 0
      m_Fill: 1
      m_Scale: {x: 1, y: 1}
      m_Offset: {x: 0, y: 0}
      m_Rotation: 0
      m_Anchor: 9
    m_Material: {fileID: 2100000, guid: c22777d6e868e4f2fb421913386b154e, type: 2}
    m_SubmeshIndex: 0
    m_ManualUV: 0
    elementGroup: 0
    m_TextureGroup: -1
  - m_Indexes: 2c0000002d0000002e0000002d0000002f0000002e000000
    m_SmoothingGroup: 0
    m_Uv:
      m_UseWorldSpace: 0
      m_FlipU: 0
      m_FlipV: 0
      m_SwapUV: 0
      m_Fill: 1
      m_Scale: {x: 1, y: 1}
      m_Offset: {x: 0, y: 0}
      m_Rotation: 0
      m_Anchor: 9
    m_Material: {fileID: 2100000, guid: c22777d6e868e4f2fb421913386b154e, type: 2}
    m_SubmeshIndex: 0
    m_ManualUV: 0
    elementGroup: 0
    m_TextureGroup: -1
  - m_Indexes: 300000003100000032000000310000003300000032000000
    m_SmoothingGroup: 0
    m_Uv:
      m_UseWorldSpace: 0
      m_FlipU: 0
      m_FlipV: 0
      m_SwapUV: 0
      m_Fill: 1
      m_Scale: {x: 1, y: 1}
      m_Offset: {x: 0, y: 0}
      m_Rotation: 0
      m_Anchor: 9
    m_Material: {fileID: 2100000, guid: c22777d6e868e4f2fb421913386b154e, type: 2}
    m_SubmeshIndex: 0
    m_ManualUV: 0
    elementGroup: 0
    m_TextureGroup: -1
  - m_Indexes: 340000003500000036000000350000003700000036000000
    m_SmoothingGroup: 0
    m_Uv:
      m_UseWorldSpace: 0
      m_FlipU: 0
      m_FlipV: 0
      m_SwapUV: 0
      m_Fill: 1
      m_Scale: {x: 1, y: 1}
      m_Offset: {x: 0, y: 0}
      m_Rotation: 0
      m_Anchor: 9
    m_Material: {fileID: 2100000, guid: c22777d6e868e4f2fb421913386b154e, type: 2}
    m_SubmeshIndex: 0
    m_ManualUV: 0
    elementGroup: 0
    m_TextureGroup: -1
  - m_Indexes: 38000000390000003a000000390000003b0000003a000000
    m_SmoothingGroup: 0
    m_Uv:
      m_UseWorldSpace: 0
      m_FlipU: 0
      m_FlipV: 0
      m_SwapUV: 0
      m_Fill: 1
      m_Scale: {x: 1, y: 1}
      m_Offset: {x: 0, y: 0}
      m_Rotation: 0
      m_Anchor: 9
    m_Material: {fileID: 2100000, guid: c22777d6e868e4f2fb421913386b154e, type: 2}
    m_SubmeshIndex: 0
    m_ManualUV: 0
    elementGroup: 0
    m_TextureGroup: 1
  - m_Indexes: 3c0000003d0000003e0000003d0000003f0000003e000000
    m_SmoothingGroup: 0
    m_Uv:
      m_UseWorldSpace: 0
      m_FlipU: 0
      m_FlipV: 0
      m_SwapUV: 0
      m_Fill: 1
      m_Scale: {x: 1, y: 1}
      m_Offset: {x: 0, y: 0}
      m_Rotation: 0
      m_Anchor: 9
    m_Material: {fileID: 2100000, guid: c22777d6e868e4f2fb421913386b154e, type: 2}
    m_SubmeshIndex: 0
    m_ManualUV: 0
    elementGroup: 0
    m_TextureGroup: 1
  - m_Indexes: 420000004100000040000000
    m_SmoothingGroup: 0
    m_Uv:
      m_UseWorldSpace: 0
      m_FlipU: 0
      m_FlipV: 0
      m_SwapUV: 0
      m_Fill: 1
      m_Scale: {x: 1, y: 1}
      m_Offset: {x: 0, y: 0}
      m_Rotation: 0
      m_Anchor: 9
    m_Material: {fileID: 2100000, guid: c22777d6e868e4f2fb421913386b154e, type: 2}
    m_SubmeshIndex: 0
    m_ManualUV: 0
    elementGroup: 0
    m_TextureGroup: 1
  - m_Indexes: 430000004400000045000000440000004600000045000000
    m_SmoothingGroup: 0
    m_Uv:
      m_UseWorldSpace: 0
      m_FlipU: 0
      m_FlipV: 0
      m_SwapUV: 0
      m_Fill: 1
      m_Scale: {x: 1, y: 1}
      m_Offset: {x: 0, y: 0}
      m_Rotation: 0
      m_Anchor: 9
    m_Material: {fileID: 2100000, guid: c22777d6e868e4f2fb421913386b154e, type: 2}
    m_SubmeshIndex: 0
    m_ManualUV: 0
    elementGroup: 0
    m_TextureGroup: 1
  - m_Indexes: 490000004800000047000000
    m_SmoothingGroup: 0
    m_Uv:
      m_UseWorldSpace: 0
      m_FlipU: 0
      m_FlipV: 0
      m_SwapUV: 0
      m_Fill: 1
      m_Scale: {x: 1, y: 1}
      m_Offset: {x: 0, y: 0}
      m_Rotation: 0
      m_Anchor: 9
    m_Material: {fileID: 2100000, guid: c22777d6e868e4f2fb421913386b154e, type: 2}
    m_SubmeshIndex: 0
    m_ManualUV: 0
    elementGroup: 0
    m_TextureGroup: 1
  - m_Indexes: 4a0000004b0000004c0000004b0000004d0000004c000000
    m_SmoothingGroup: 0
    m_Uv:
      m_UseWorldSpace: 0
      m_FlipU: 0
      m_FlipV: 0
      m_SwapUV: 0
      m_Fill: 1
      m_Scale: {x: 1, y: 1}
      m_Offset: {x: 0, y: 0}
      m_Rotation: 0
      m_Anchor: 9
    m_Material: {fileID: 2100000, guid: c22777d6e868e4f2fb421913386b154e, type: 2}
    m_SubmeshIndex: 0
    m_ManualUV: 0
    elementGroup: 0
    m_TextureGroup: 1
  - m_Indexes: 500000004f0000004e000000
    m_SmoothingGroup: 0
    m_Uv:
      m_UseWorldSpace: 0
      m_FlipU: 0
      m_FlipV: 0
      m_SwapUV: 0
      m_Fill: 1
      m_Scale: {x: 1, y: 1}
      m_Offset: {x: 0, y: 0}
      m_Rotation: 0
      m_Anchor: 9
    m_Material: {fileID: 2100000, guid: c22777d6e868e4f2fb421913386b154e, type: 2}
    m_SubmeshIndex: 0
    m_ManualUV: 0
    elementGroup: 0
    m_TextureGroup: 1
  - m_Indexes: 510000005200000053000000520000005400000053000000
    m_SmoothingGroup: 0
    m_Uv:
      m_UseWorldSpace: 0
      m_FlipU: 0
      m_FlipV: 0
      m_SwapUV: 0
      m_Fill: 1
      m_Scale: {x: 1, y: 1}
      m_Offset: {x: 0, y: 0}
      m_Rotation: 0
      m_Anchor: 9
    m_Material: {fileID: 2100000, guid: c22777d6e868e4f2fb421913386b154e, type: 2}
    m_SubmeshIndex: 0
    m_ManualUV: 0
    elementGroup: 0
    m_TextureGroup: 1
  - m_Indexes: 570000005600000055000000
    m_SmoothingGroup: 0
    m_Uv:
      m_UseWorldSpace: 0
      m_FlipU: 0
      m_FlipV: 0
      m_SwapUV: 0
      m_Fill: 1
      m_Scale: {x: 1, y: 1}
      m_Offset: {x: 0, y: 0}
      m_Rotation: 0
      m_Anchor: 9
    m_Material: {fileID: 2100000, guid: c22777d6e868e4f2fb421913386b154e, type: 2}
    m_SubmeshIndex: 0
    m_ManualUV: 0
    elementGroup: 0
    m_TextureGroup: 1
  - m_Indexes: 58000000590000005a000000590000005b0000005a000000
    m_SmoothingGroup: 0
    m_Uv:
      m_UseWorldSpace: 0
      m_FlipU: 0
      m_FlipV: 0
      m_SwapUV: 0
      m_Fill: 1
      m_Scale: {x: 1, y: 1}
      m_Offset: {x: 0, y: 0}
      m_Rotation: 0
      m_Anchor: 9
    m_Material: {fileID: 2100000, guid: c22777d6e868e4f2fb421913386b154e, type: 2}
    m_SubmeshIndex: 0
    m_ManualUV: 0
    elementGroup: 0
    m_TextureGroup: 1
  - m_Indexes: 5e0000005d0000005c000000
    m_SmoothingGroup: 0
    m_Uv:
      m_UseWorldSpace: 0
      m_FlipU: 0
      m_FlipV: 0
      m_SwapUV: 0
      m_Fill: 1
      m_Scale: {x: 1, y: 1}
      m_Offset: {x: 0, y: 0}
      m_Rotation: 0
      m_Anchor: 9
    m_Material: {fileID: 2100000, guid: c22777d6e868e4f2fb421913386b154e, type: 2}
    m_SubmeshIndex: 0
    m_ManualUV: 0
    elementGroup: 0
    m_TextureGroup: 1
  - m_Indexes: 5f0000006000000061000000600000006200000061000000
    m_SmoothingGroup: 0
    m_Uv:
      m_UseWorldSpace: 0
      m_FlipU: 0
      m_FlipV: 0
      m_SwapUV: 0
      m_Fill: 1
      m_Scale: {x: 1, y: 1}
      m_Offset: {x: 0, y: 0}
      m_Rotation: 0
      m_Anchor: 9
    m_Material: {fileID: 2100000, guid: c22777d6e868e4f2fb421913386b154e, type: 2}
    m_SubmeshIndex: 0
    m_ManualUV: 0
    elementGroup: 0
    m_TextureGroup: 1
  - m_Indexes: 650000006400000063000000
    m_SmoothingGroup: 0
    m_Uv:
      m_UseWorldSpace: 0
      m_FlipU: 0
      m_FlipV: 0
      m_SwapUV: 0
      m_Fill: 1
      m_Scale: {x: 1, y: 1}
      m_Offset: {x: 0, y: 0}
      m_Rotation: 0
      m_Anchor: 9
    m_Material: {fileID: 2100000, guid: c22777d6e868e4f2fb421913386b154e, type: 2}
    m_SubmeshIndex: 0
    m_ManualUV: 0
    elementGroup: 0
    m_TextureGroup: 1
  - m_Indexes: 680000006700000066000000680000006900000067000000
    m_SmoothingGroup: 0
    m_Uv:
      m_UseWorldSpace: 0
      m_FlipU: 0
      m_FlipV: 0
      m_SwapUV: 0
      m_Fill: 1
      m_Scale: {x: 1, y: 1}
      m_Offset: {x: 0, y: 0}
      m_Rotation: 0
      m_Anchor: 9
    m_Material: {fileID: 2100000, guid: c22777d6e868e4f2fb421913386b154e, type: 2}
    m_SubmeshIndex: 0
    m_ManualUV: 0
    elementGroup: 0
    m_TextureGroup: 2
  - m_Indexes: 6c0000006b0000006a0000006c0000006d0000006b000000
    m_SmoothingGroup: 0
    m_Uv:
      m_UseWorldSpace: 0
      m_FlipU: 0
      m_FlipV: 0
      m_SwapUV: 0
      m_Fill: 1
      m_Scale: {x: 1, y: 1}
      m_Offset: {x: 0, y: 0}
      m_Rotation: 0
      m_Anchor: 9
    m_Material: {fileID: 2100000, guid: c22777d6e868e4f2fb421913386b154e, type: 2}
    m_SubmeshIndex: 0
    m_ManualUV: 0
    elementGroup: 0
    m_TextureGroup: 2
  - m_Indexes: 6e0000006f00000070000000
    m_SmoothingGroup: 0
    m_Uv:
      m_UseWorldSpace: 0
      m_FlipU: 0
      m_FlipV: 0
      m_SwapUV: 0
      m_Fill: 1
      m_Scale: {x: 1, y: 1}
      m_Offset: {x: 0, y: 0}
      m_Rotation: 0
      m_Anchor: 9
    m_Material: {fileID: 2100000, guid: c22777d6e868e4f2fb421913386b154e, type: 2}
    m_SubmeshIndex: 0
    m_ManualUV: 0
    elementGroup: 0
    m_TextureGroup: 2
  - m_Indexes: 730000007200000071000000730000007400000072000000
    m_SmoothingGroup: 0
    m_Uv:
      m_UseWorldSpace: 0
      m_FlipU: 0
      m_FlipV: 0
      m_SwapUV: 0
      m_Fill: 1
      m_Scale: {x: 1, y: 1}
      m_Offset: {x: 0, y: 0}
      m_Rotation: 0
      m_Anchor: 9
    m_Material: {fileID: 2100000, guid: c22777d6e868e4f2fb421913386b154e, type: 2}
    m_SubmeshIndex: 0
    m_ManualUV: 0
    elementGroup: 0
    m_TextureGroup: 2
  - m_Indexes: 750000007600000077000000
    m_SmoothingGroup: 0
    m_Uv:
      m_UseWorldSpace: 0
      m_FlipU: 0
      m_FlipV: 0
      m_SwapUV: 0
      m_Fill: 1
      m_Scale: {x: 1, y: 1}
      m_Offset: {x: 0, y: 0}
      m_Rotation: 0
      m_Anchor: 9
    m_Material: {fileID: 2100000, guid: c22777d6e868e4f2fb421913386b154e, type: 2}
    m_SubmeshIndex: 0
    m_ManualUV: 0
    elementGroup: 0
    m_TextureGroup: 2
  - m_Indexes: 7a00000079000000780000007a0000007b00000079000000
    m_SmoothingGroup: 0
    m_Uv:
      m_UseWorldSpace: 0
      m_FlipU: 0
      m_FlipV: 0
      m_SwapUV: 0
      m_Fill: 1
      m_Scale: {x: 1, y: 1}
      m_Offset: {x: 0, y: 0}
      m_Rotation: 0
      m_Anchor: 9
    m_Material: {fileID: 2100000, guid: c22777d6e868e4f2fb421913386b154e, type: 2}
    m_SubmeshIndex: 0
    m_ManualUV: 0
    elementGroup: 0
    m_TextureGroup: 2
  - m_Indexes: 7c0000007d0000007e000000
    m_SmoothingGroup: 0
    m_Uv:
      m_UseWorldSpace: 0
      m_FlipU: 0
      m_FlipV: 0
      m_SwapUV: 0
      m_Fill: 1
      m_Scale: {x: 1, y: 1}
      m_Offset: {x: 0, y: 0}
      m_Rotation: 0
      m_Anchor: 9
    m_Material: {fileID: 2100000, guid: c22777d6e868e4f2fb421913386b154e, type: 2}
    m_SubmeshIndex: 0
    m_ManualUV: 0
    elementGroup: 0
    m_TextureGroup: 2
  - m_Indexes: 81000000800000007f000000810000008200000080000000
    m_SmoothingGroup: 0
    m_Uv:
      m_UseWorldSpace: 0
      m_FlipU: 0
      m_FlipV: 0
      m_SwapUV: 0
      m_Fill: 1
      m_Scale: {x: 1, y: 1}
      m_Offset: {x: 0, y: 0}
      m_Rotation: 0
      m_Anchor: 9
    m_Material: {fileID: 2100000, guid: c22777d6e868e4f2fb421913386b154e, type: 2}
    m_SubmeshIndex: 0
    m_ManualUV: 0
    elementGroup: 0
    m_TextureGroup: 2
  - m_Indexes: 830000008400000085000000
    m_SmoothingGroup: 0
    m_Uv:
      m_UseWorldSpace: 0
      m_FlipU: 0
      m_FlipV: 0
      m_SwapUV: 0
      m_Fill: 1
      m_Scale: {x: 1, y: 1}
      m_Offset: {x: 0, y: 0}
      m_Rotation: 0
      m_Anchor: 9
    m_Material: {fileID: 2100000, guid: c22777d6e868e4f2fb421913386b154e, type: 2}
    m_SubmeshIndex: 0
    m_ManualUV: 0
    elementGroup: 0
    m_TextureGroup: 2
  - m_Indexes: 880000008700000086000000880000008900000087000000
    m_SmoothingGroup: 0
    m_Uv:
      m_UseWorldSpace: 0
      m_FlipU: 0
      m_FlipV: 0
      m_SwapUV: 0
      m_Fill: 1
      m_Scale: {x: 1, y: 1}
      m_Offset: {x: 0, y: 0}
      m_Rotation: 0
      m_Anchor: 9
    m_Material: {fileID: 2100000, guid: c22777d6e868e4f2fb421913386b154e, type: 2}
    m_SubmeshIndex: 0
    m_ManualUV: 0
    elementGroup: 0
    m_TextureGroup: 2
  - m_Indexes: 8a0000008b0000008c000000
    m_SmoothingGroup: 0
    m_Uv:
      m_UseWorldSpace: 0
      m_FlipU: 0
      m_FlipV: 0
      m_SwapUV: 0
      m_Fill: 1
      m_Scale: {x: 1, y: 1}
      m_Offset: {x: 0, y: 0}
      m_Rotation: 0
      m_Anchor: 9
    m_Material: {fileID: 2100000, guid: c22777d6e868e4f2fb421913386b154e, type: 2}
    m_SubmeshIndex: 0
    m_ManualUV: 0
    elementGroup: 0
    m_TextureGroup: 2
  - m_Indexes: 8f0000008e0000008d0000008f000000900000008e000000
    m_SmoothingGroup: 0
    m_Uv:
      m_UseWorldSpace: 0
      m_FlipU: 0
      m_FlipV: 0
      m_SwapUV: 0
      m_Fill: 1
      m_Scale: {x: 1, y: 1}
      m_Offset: {x: 0, y: 0}
      m_Rotation: 0
      m_Anchor: 9
    m_Material: {fileID: 2100000, guid: c22777d6e868e4f2fb421913386b154e, type: 2}
    m_SubmeshIndex: 0
    m_ManualUV: 0
    elementGroup: 0
    m_TextureGroup: 2
  - m_Indexes: 910000009200000093000000
    m_SmoothingGroup: 0
    m_Uv:
      m_UseWorldSpace: 0
      m_FlipU: 0
      m_FlipV: 0
      m_SwapUV: 0
      m_Fill: 1
      m_Scale: {x: 1, y: 1}
      m_Offset: {x: 0, y: 0}
      m_Rotation: 0
      m_Anchor: 9
    m_Material: {fileID: 2100000, guid: c22777d6e868e4f2fb421913386b154e, type: 2}
    m_SubmeshIndex: 0
    m_ManualUV: 0
    elementGroup: 0
    m_TextureGroup: 2
  - m_Indexes: 940000009500000096000000950000009700000096000000
    m_SmoothingGroup: 0
    m_Uv:
      m_UseWorldSpace: 0
      m_FlipU: 0
      m_FlipV: 0
      m_SwapUV: 0
      m_Fill: 1
      m_Scale: {x: 1, y: 1}
      m_Offset: {x: 0, y: 0}
      m_Rotation: 0
      m_Anchor: 9
    m_Material: {fileID: 2100000, guid: c22777d6e868e4f2fb421913386b154e, type: 2}
    m_SubmeshIndex: 0
    m_ManualUV: 0
    elementGroup: 0
    m_TextureGroup: -1
  m_SharedVertices:
  - m_Vertices: 0000000066000000
  - m_Vertices: 0100000038000000
  - m_Vertices: 020000000400000068000000
  - m_Vertices: 03000000050000003a000000
  - m_Vertices: 0600000008000000690000006c0000006e000000
  - m_Vertices: 07000000090000003b0000003e00000040000000
  - m_Vertices: 0a0000000c0000006f000000
  - m_Vertices: 0b0000000d00000041000000
  - m_Vertices: 0e000000100000006d000000700000007300000075000000
  - m_Vertices: 0f000000110000003f000000420000004500000047000000
  - m_Vertices: 120000001400000076000000
  - m_Vertices: 130000001500000048000000
  - m_Vertices: 160000001800000074000000770000007a0000007c000000
  - m_Vertices: 170000001900000046000000490000004c0000004e000000
  - m_Vertices: 1a0000001c0000007d000000
  - m_Vertices: 1b0000001d0000004f000000
  - m_Vertices: 1e000000200000007b0000007e0000008100000083000000
  - m_Vertices: 1f000000210000004d000000500000005300000055000000
  - m_Vertices: 220000002400000084000000
  - m_Vertices: 230000002500000056000000
  - m_Vertices: 26000000280000008200000085000000880000008a000000
  - m_Vertices: 270000002900000054000000570000005a0000005c000000
  - m_Vertices: 2a0000002c0000008b000000
  - m_Vertices: 2b0000002d0000005d000000
  - m_Vertices: 2e00000030000000890000008c0000008f00000091000000
  - m_Vertices: 2f000000310000005b0000005e0000006100000063000000
  - m_Vertices: 320000003400000092000000
  - m_Vertices: 330000003500000064000000
  - m_Vertices: 36000000900000009300000097000000
  - m_Vertices: 37000000620000006500000096000000
  - m_Vertices: 390000003c000000
  - m_Vertices: 3d00000043000000
  - m_Vertices: 440000004a000000
  - m_Vertices: 4b00000051000000
  - m_Vertices: 5200000058000000
  - m_Vertices: 590000005f000000
  - m_Vertices: 6000000094000000
  - m_Vertices: 670000006a000000
  - m_Vertices: 6b00000071000000
  - m_Vertices: 7200000078000000
  - m_Vertices: 790000007f000000
  - m_Vertices: 8000000086000000
  - m_Vertices: 870000008d000000
  - m_Vertices: 8e00000095000000
  m_SharedTextures: []
  m_Positions:
  - {x: 0, y: 0, z: 0}
  - {x: -2, y: 0, z: 0}
  - {x: 0, y: 0.2857143, z: 0}
  - {x: -2, y: 0.2857143, z: 0}
  - {x: 0, y: 0.2857143, z: 0}
  - {x: -2, y: 0.2857143, z: 0}
  - {x: 0, y: 0.2857143, z: 0.42857146}
  - {x: -2, y: 0.2857143, z: 0.42857146}
  - {x: 0, y: 0.2857143, z: 0.42857146}
  - {x: -2, y: 0.2857143, z: 0.42857146}
  - {x: 0, y: 0.5714286, z: 0.42857146}
  - {x: -2, y: 0.5714286, z: 0.42857146}
  - {x: 0, y: 0.5714286, z: 0.42857146}
  - {x: -2, y: 0.5714286, z: 0.42857146}
  - {x: 0, y: 0.5714286, z: 0.8571429}
  - {x: -2, y: 0.5714286, z: 0.8571429}
  - {x: 0, y: 0.5714286, z: 0.8571429}
  - {x: -2, y: 0.5714286, z: 0.8571429}
  - {x: 0, y: 0.85714287, z: 0.8571429}
  - {x: -2, y: 0.85714287, z: 0.8571429}
  - {x: 0, y: 0.85714287, z: 0.8571429}
  - {x: -2, y: 0.85714287, z: 0.8571429}
  - {x: 0, y: 0.85714287, z: 1.2857143}
  - {x: -2, y: 0.85714287, z: 1.2857143}
  - {x: 0, y: 0.85714287, z: 1.2857143}
  - {x: -2, y: 0.85714287, z: 1.2857143}
  - {x: 0, y: 1.1428572, z: 1.2857143}
  - {x: -2, y: 1.1428572, z: 1.2857143}
  - {x: 0, y: 1.1428572, z: 1.2857143}
  - {x: -2, y: 1.1428572, z: 1.2857143}
  - {x: 0, y: 1.1428572, z: 1.7142859}
  - {x: -2, y: 1.1428572, z: 1.7142859}
  - {x: 0, y: 1.1428572, z: 1.7142859}
  - {x: -2, y: 1.1428572, z: 1.7142859}
  - {x: 0, y: 1.4285715, z: 1.7142859}
  - {x: -2, y: 1.4285715, z: 1.7142859}
  - {x: 0, y: 1.4285715, z: 1.7142859}
  - {x: -2, y: 1.4285715, z: 1.7142859}
  - {x: 0, y: 1.4285715, z: 2.142857}
  - {x: -2, y: 1.4285715, z: 2.142857}
  - {x: 0, y: 1.4285715, z: 2.142857}
  - {x: -2, y: 1.4285715, z: 2.142857}
  - {x: 0, y: 1.7142857, z: 2.142857}
  - {x: -2, y: 1.7142857, z: 2.142857}
  - {x: 0, y: 1.7142857, z: 2.142857}
  - {x: -2, y: 1.7142857, z: 2.142857}
  - {x: 0, y: 1.7142857, z: 2.5714285}
  - {x: -2, y: 1.7142857, z: 2.5714285}
  - {x: 0, y: 1.7142857, z: 2.5714285}
  - {x: -2, y: 1.7142857, z: 2.5714285}
  - {x: 0.000000034059667, y: 2.0082645, z: 2.5714262}
  - {x: -2.0000002, y: 2.0082645, z: 2.5714262}
  - {x: 0.000000034059667, y: 2.0082645, z: 2.5714262}
  - {x: -2.0000002, y: 2.0082645, z: 2.5714262}
  - {x: 0.00000011920929, y: 2.0082645, z: 3.9999998}
  - {x: -2, y: 2.0082645, z: 3.9999998}
  - {x: -2, y: 0, z: 0}
  - {x: -2, y: 0, z: 0.42857143}
  - {x: -2, y: 0.2857143, z: 0}
  - {x: -2, y: 0.2857143, z: 0.42857143}
  - {x: -2, y: 0, z: 0.42857143}
  - {x: -2, y: 0, z: 0.85714287}
  - {x: -2, y: 0.2857143, z: 0.42857143}
  - {x: -2, y: 0.5714286, z: 0.85714287}
  - {x: -2, y: 0.2857143, z: 0.42857143}
  - {x: -2, y: 0.5714286, z: 0.42857143}
  - {x: -2, y: 0.5714286, z: 0.85714287}
  - {x: -2, y: 0, z: 0.85714287}
  - {x: -2, y: 0, z: 1.2857143}
  - {x: -2, y: 0.5714286, z: 0.85714287}
  - {x: -2, y: 0.85714287, z: 1.2857143}
  - {x: -2, y: 0.5714286, z: 0.85714287}
  - {x: -2, y: 0.85714287, z: 0.85714287}
  - {x: -2, y: 0.85714287, z: 1.2857143}
  - {x: -2, y: 0, z: 1.2857143}
  - {x: -2, y: 0, z: 1.7142857}
  - {x: -2, y: 0.85714287, z: 1.2857143}
  - {x: -2, y: 1.1428572, z: 1.7142857}
  - {x: -2, y: 0.85714287, z: 1.2857143}
  - {x: -2, y: 1.1428572, z: 1.2857143}
  - {x: -2, y: 1.1428572, z: 1.7142857}
  - {x: -2, y: 0, z: 1.7142857}
  - {x: -2, y: 0, z: 2.142857}
  - {x: -2, y: 1.1428572, z: 1.7142857}
  - {x: -2, y: 1.4285715, z: 2.142857}
  - {x: -2, y: 1.1428572, z: 1.7142857}
  - {x: -2, y: 1.4285715, z: 1.7142857}
  - {x: -2, y: 1.4285715, z: 2.142857}
  - {x: -2, y: 0, z: 2.142857}
  - {x: -2, y: 0, z: 2.5714285}
  - {x: -2, y: 1.4285715, z: 2.142857}
  - {x: -2, y: 1.7142857, z: 2.5714285}
  - {x: -2, y: 1.4285715, z: 2.142857}
  - {x: -2, y: 1.7142857, z: 2.142857}
  - {x: -2, y: 1.7142857, z: 2.5714285}
  - {x: -2, y: 0, z: 2.5714285}
  - {x: -2, y: 0, z: 3.9999998}
  - {x: -2, y: 1.7142857, z: 2.5714285}
  - {x: -2, y: 2.0082645, z: 3.9999998}
  - {x: -2, y: 1.7142857, z: 2.5714285}
  - {x: -2.0000002, y: 2.0082645, z: 2.5714262}
  - {x: -2, y: 2.0082645, z: 3.9999998}
  - {x: 0, y: 0, z: 0}
  - {x: 0, y: 0, z: 0.42857143}
  - {x: 0, y: 0.2857143, z: 0}
  - {x: 0, y: 0.2857143, z: 0.42857143}
  - {x: 0, y: 0, z: 0.42857143}
  - {x: 0, y: 0, z: 0.85714287}
  - {x: 0, y: 0.2857143, z: 0.42857143}
  - {x: 0, y: 0.5714286, z: 0.85714287}
  - {x: 0, y: 0.2857143, z: 0.42857143}
  - {x: 0, y: 0.5714286, z: 0.42857143}
  - {x: 0, y: 0.5714286, z: 0.85714287}
  - {x: 0, y: 0, z: 0.85714287}
  - {x: 0, y: 0, z: 1.2857143}
  - {x: 0, y: 0.5714286, z: 0.85714287}
  - {x: 0, y: 0.85714287, z: 1.2857143}
  - {x: 0, y: 0.5714286, z: 0.85714287}
  - {x: 0, y: 0.85714287, z: 0.85714287}
  - {x: 0, y: 0.85714287, z: 1.2857143}
  - {x: 0, y: 0, z: 1.2857143}
  - {x: 0, y: 0, z: 1.7142857}
  - {x: 0, y: 0.85714287, z: 1.2857143}
  - {x: 0, y: 1.1428572, z: 1.7142857}
  - {x: 0, y: 0.85714287, z: 1.2857143}
  - {x: 0, y: 1.1428572, z: 1.2857143}
  - {x: 0, y: 1.1428572, z: 1.7142857}
  - {x: 0, y: 0, z: 1.7142857}
  - {x: 0, y: 0, z: 2.142857}
  - {x: 0, y: 1.1428572, z: 1.7142857}
  - {x: 0, y: 1.4285715, z: 2.142857}
  - {x: 0, y: 1.1428572, z: 1.7142857}
  - {x: 0, y: 1.4285715, z: 1.7142857}
  - {x: 0, y: 1.4285715, z: 2.142857}
  - {x: 0, y: 0, z: 2.142857}
  - {x: 0, y: 0, z: 2.5714285}
  - {x: 0, y: 1.4285715, z: 2.142857}
  - {x: 0, y: 1.7142857, z: 2.5714285}
  - {x: 0, y: 1.4285715, z: 2.142857}
  - {x: 0, y: 1.7142857, z: 2.142857}
  - {x: 0, y: 1.7142857, z: 2.5714285}
  - {x: 0, y: 0, z: 2.5714285}
  - {x: 0.00000011920929, y: 0, z: 3.9999998}
  - {x: 0, y: 1.7142857, z: 2.5714285}
  - {x: 0.00000011920929, y: 2.0082645, z: 3.9999998}
  - {x: 0, y: 1.7142857, z: 2.5714285}
  - {x: 0.000000034059667, y: 2.0082645, z: 2.5714262}
  - {x: 0.00000011920929, y: 2.0082645, z: 3.9999998}
  - {x: -2, y: 0, z: 3.9999998}
  - {x: 0.00000011920929, y: 0, z: 3.9999998}
  - {x: -2, y: 2.0082645, z: 3.9999998}
  - {x: 0.00000011920929, y: 2.0082645, z: 3.9999998}
  m_Textures0:
  - {x: 0, y: 0}
  - {x: -2, y: 0}
  - {x: 0, y: 0.2857143}
  - {x: -2, y: 0.2857143}
  - {x: 0, y: 0}
  - {x: -2, y: 0}
  - {x: 0, y: 0.42857146}
  - {x: -2, y: 0.42857146}
  - {x: 0, y: 0.2857143}
  - {x: -2, y: 0.2857143}
  - {x: 0, y: 0.5714286}
  - {x: -2, y: 0.5714286}
  - {x: 0, y: 0.42857146}
  - {x: -2, y: 0.42857146}
  - {x: 0, y: 0.8571429}
  - {x: -2, y: 0.8571429}
  - {x: 0, y: 0.5714286}
  - {x: -2, y: 0.5714286}
  - {x: 0, y: 0.85714287}
  - {x: -2, y: 0.85714287}
  - {x: 0, y: 0.8571429}
  - {x: -2, y: 0.8571429}
  - {x: 0, y: 1.2857143}
  - {x: -2, y: 1.2857143}
  - {x: 0, y: 0.85714287}
  - {x: -2, y: 0.85714287}
  - {x: 0, y: 1.1428572}
  - {x: -2, y: 1.1428572}
  - {x: 0, y: 1.2857143}
  - {x: -2, y: 1.2857143}
  - {x: 0, y: 1.7142859}
  - {x: -2, y: 1.7142859}
  - {x: 0, y: 1.1428572}
  - {x: -2, y: 1.1428572}
  - {x: 0, y: 1.4285715}
  - {x: -2, y: 1.4285715}
  - {x: 0, y: 1.7142859}
  - {x: -2, y: 1.7142859}
  - {x: 0, y: 2.142857}
  - {x: -2, y: 2.142857}
  - {x: 0, y: 1.4285715}
  - {x: -2, y: 1.4285715}
  - {x: 0, y: 1.7142857}
  - {x: -2, y: 1.7142857}
  - {x: 0, y: 2.142857}
  - {x: -2, y: 2.142857}
  - {x: 0, y: 2.5714285}
  - {x: -2, y: 2.5714285}
  - {x: 0, y: 1.7142649}
  - {x: -2, y: 1.7142649}
  - {x: 0.000000034059667, y: 2.0082438}
  - {x: -2.0000002, y: 2.0082438}
  - {x: 0.000000034059667, y: 2.5714262}
  - {x: -2.0000002, y: 2.5714262}
  - {x: 0.00000011920929, y: 3.9999998}
  - {x: -2, y: 3.9999998}
  - {x: 0.000000025675806, y: 0.00000012476995}
  - {x: -0.4285714, y: 0.00000012476995}
  - {x: 0.000000025675806, y: 0.28571442}
  - {x: -0.4285714, y: 0.28571442}
  - {x: -0.4285714, y: 0.00000012476995}
  - {x: -0.85714287, y: 0.00000012476995}
  - {x: -0.4285714, y: 0.28571442}
  - {x: -0.85714287, y: 0.5714287}
  - {x: -0.4285714, y: 0.28571442}
  - {x: -0.4285714, y: 0.5714287}
  - {x: -0.85714287, y: 0.5714287}
  - {x: -0.85714287, y: 0.00000012476995}
  - {x: -1.2857143, y: 0.00000012476995}
  - {x: -0.85714287, y: 0.5714287}
  - {x: -1.2857143, y: 0.857143}
  - {x: -0.85714287, y: 0.5714287}
  - {x: -0.85714287, y: 0.857143}
  - {x: -1.2857143, y: 0.857143}
  - {x: -1.2857143, y: 0.00000012476995}
  - {x: -1.7142857, y: 0.00000012476995}
  - {x: -1.2857143, y: 0.857143}
  - {x: -1.7142857, y: 1.1428573}
  - {x: -1.2857143, y: 0.857143}
  - {x: -1.2857143, y: 1.1428573}
  - {x: -1.7142857, y: 1.1428573}
  - {x: -1.7142857, y: 0.00000012476995}
  - {x: -2.142857, y: 0.00000012476995}
  - {x: -1.7142857, y: 1.1428573}
  - {x: -2.142857, y: 1.4285716}
  - {x: -1.7142857, y: 1.1428573}
  - {x: -1.7142857, y: 1.4285716}
  - {x: -2.142857, y: 1.4285716}
  - {x: -2.142857, y: 0.00000012476995}
  - {x: -2.5714285, y: 0.00000012476995}
  - {x: -2.142857, y: 1.4285716}
  - {x: -2.5714285, y: 1.7142859}
  - {x: -2.142857, y: 1.4285716}
  - {x: -2.142857, y: 1.7142859}
  - {x: -2.5714285, y: 1.7142859}
  - {x: -2.5714285, y: 0.00000012476995}
  - {x: -3.9999998, y: 0.00000012476995}
  - {x: -2.5714285, y: 1.7142859}
  - {x: -3.9999998, y: 2.0082648}
  - {x: -2.5714285, y: 1.7142859}
  - {x: -2.5714262, y: 2.0082648}
  - {x: -3.9999998, y: 2.0082648}
  - {x: 0, y: 0}
  - {x: 0.42857143, y: -4.2029484e-17}
  - {x: 0, y: 0.2857143}
  - {x: 0.42857143, y: 0.2857143}
  - {x: 0.42857143, y: -4.2029484e-17}
  - {x: 0.85714287, y: -8.405897e-17}
  - {x: 0.42857143, y: 0.2857143}
  - {x: 0.85714287, y: 0.5714286}
  - {x: 0.42857143, y: 0.2857143}
  - {x: 0.42857143, y: 0.5714286}
  - {x: 0.85714287, y: 0.5714286}
  - {x: 0.85714287, y: -8.405897e-17}
  - {x: 1.2857143, y: -1.2608845e-16}
  - {x: 0.85714287, y: 0.5714286}
  - {x: 1.2857143, y: 0.85714287}
  - {x: 0.85714287, y: 0.5714286}
  - {x: 0.85714287, y: 0.85714287}
  - {x: 1.2857143, y: 0.85714287}
  - {x: 1.2857143, y: -1.2608845e-16}
  - {x: 1.7142857, y: -1.6811793e-16}
  - {x: 1.2857143, y: 0.85714287}
  - {x: 1.7142857, y: 1.1428572}
  - {x: 1.2857143, y: 0.85714287}
  - {x: 1.2857143, y: 1.1428572}
  - {x: 1.7142857, y: 1.1428572}
  - {x: 1.7142857, y: -1.6811793e-16}
  - {x: 2.142857, y: -2.101474e-16}
  - {x: 1.7142857, y: 1.1428572}
  - {x: 2.142857, y: 1.4285715}
  - {x: 1.7142857, y: 1.1428572}
  - {x: 1.7142857, y: 1.4285715}
  - {x: 2.142857, y: 1.4285715}
  - {x: 2.142857, y: -2.101474e-16}
  - {x: 2.5714285, y: -2.521769e-16}
  - {x: 2.142857, y: 1.4285715}
  - {x: 2.5714285, y: 1.7142857}
  - {x: 2.142857, y: 1.4285715}
  - {x: 2.142857, y: 1.7142857}
  - {x: 2.5714285, y: 1.7142857}
  - {x: 2.5714285, y: -2.521769e-16}
  - {x: 3.9999998, y: 6.701368e-16}
  - {x: 2.5714285, y: 1.7142857}
  - {x: 3.9999998, y: 2.0082645}
  - {x: 2.5714285, y: 1.7142857}
  - {x: 2.5714262, y: 2.0082645}
  - {x: 3.9999998, y: 2.0082645}
  - {x: 2, y: 0}
  - {x: -0.00000011920929, y: 0}
  - {x: 2, y: 2.0082645}
  - {x: -0.00000011920929, y: 2.0082645}
  m_Textures2: []
  m_Textures3: []
  m_Tangents:
  - {x: 1, y: 0, z: 0, w: -1}
  - {x: 1, y: 0, z: 0, w: -1}
  - {x: 1, y: 0, z: 0, w: -1}
  - {x: 1, y: 0, z: 0, w: -1}
  - {x: 1, y: 0, z: 0, w: -1}
  - {x: 1, y: 0, z: 0, w: -1}
  - {x: 1, y: 0, z: 0, w: -1}
  - {x: 1, y: 0, z: 0, w: -1}
  - {x: 1, y: 0, z: 0, w: -1}
  - {x: 1, y: 0, z: 0, w: -1}
  - {x: 1, y: 0, z: 0, w: -1}
  - {x: 1, y: 0, z: 0, w: -1}
  - {x: 1, y: 0, z: 0, w: -1}
  - {x: 1, y: 0, z: 0, w: -1}
  - {x: 1, y: 0, z: 0, w: -1}
  - {x: 1, y: 0, z: 0, w: -1}
  - {x: 1, y: 0, z: 0, w: -1}
  - {x: 1, y: 0, z: 0, w: -1}
  - {x: 1, y: 0, z: 0, w: -1}
  - {x: 1, y: 0, z: 0, w: -1}
  - {x: 1, y: 0, z: 0, w: -1}
  - {x: 1, y: 0, z: 0, w: -1}
  - {x: 1, y: 0, z: 0, w: -1}
  - {x: 1, y: 0, z: 0, w: -1}
  - {x: 1, y: 0, z: 0, w: -1}
  - {x: 1, y: 0, z: 0, w: -1}
  - {x: 1, y: 0, z: 0, w: -1}
  - {x: 1, y: 0, z: 0, w: -1}
  - {x: 1, y: 0, z: 0, w: -1}
  - {x: 1, y: 0, z: 0, w: -1}
  - {x: 1, y: 0, z: 0, w: -1}
  - {x: 1, y: 0, z: 0, w: -1}
  - {x: 1, y: 0, z: 0, w: -1}
  - {x: 1, y: 0, z: 0, w: -1}
  - {x: 1, y: 0, z: 0, w: -1}
  - {x: 1, y: 0, z: 0, w: -1}
  - {x: 1, y: 0, z: 0, w: -1}
  - {x: 1, y: 0, z: 0, w: -1}
  - {x: 1, y: 0, z: 0, w: -1}
  - {x: 1, y: 0, z: 0, w: -1}
  - {x: 1, y: 0, z: 0, w: -1}
  - {x: 1, y: 0, z: 0, w: -1}
  - {x: 1, y: 0, z: 0, w: -1}
  - {x: 1, y: 0, z: 0, w: -1}
  - {x: 1, y: 0, z: 0, w: -1}
  - {x: 1, y: 0, z: 0, w: -1}
  - {x: 1, y: 0, z: 0, w: -1}
  - {x: 1, y: 0, z: 0, w: -1}
  - {x: 1, y: 0, z: 0, w: -1}
  - {x: 1, y: 0, z: 0, w: -1}
  - {x: 1, y: 0, z: 0, w: -1}
  - {x: 1, y: 0, z: 0, w: -1}
  - {x: 1, y: 0, z: 0, w: -1}
  - {x: 1, y: 0, z: 0, w: -1}
  - {x: 1, y: 0, z: 0, w: -1}
  - {x: 1, y: 0, z: 0, w: -1}
  - {x: 0, y: 0, z: -1, w: -1}
  - {x: 0, y: 0, z: -1, w: -1}
  - {x: 0, y: 0, z: -1, w: -1}
  - {x: 0, y: 0, z: -1, w: -1}
  - {x: 0, y: 0, z: -1, w: -1}
  - {x: 0, y: 0, z: -1, w: -1}
  - {x: 0, y: 0, z: -1, w: -1}
  - {x: 0, y: 0, z: -1, w: -1}
  - {x: 0, y: 0, z: -1, w: -1}
  - {x: 0, y: 0, z: -1, w: -1}
  - {x: 0, y: 0, z: -1, w: -1}
  - {x: 0, y: 0, z: -1, w: -1}
  - {x: 0, y: 0, z: -1, w: -1}
  - {x: 0, y: 0, z: -1, w: -1}
  - {x: 0, y: 0, z: -1, w: -1}
  - {x: 0, y: 0, z: -1, w: -1}
  - {x: 0, y: 0, z: -1, w: -1}
  - {x: 0, y: 0, z: -1, w: -1}
  - {x: 0, y: 0, z: -1, w: -1}
  - {x: 0, y: 0, z: -1, w: -1}
  - {x: 0, y: 0, z: -1, w: -1}
  - {x: 0, y: 0, z: -1, w: -1}
  - {x: 0, y: 0, z: -1, w: -1}
  - {x: 0, y: 0, z: -1, w: -1}
  - {x: 0, y: 0, z: -1, w: -1}
  - {x: 0, y: 0, z: -1, w: -1}
  - {x: 0, y: 0, z: -1, w: -1}
  - {x: 0, y: 0, z: -1, w: -1}
  - {x: 0, y: 0, z: -1, w: -1}
  - {x: 0, y: 0, z: -1, w: -1}
  - {x: 0, y: 0, z: -1, w: -1}
  - {x: 0, y: 0, z: -1, w: -1}
  - {x: 0, y: 0, z: -1, w: -1}
  - {x: 0, y: 0, z: -1, w: -1}
  - {x: 0, y: 0, z: -1, w: -1}
  - {x: 0, y: 0, z: -1, w: -1}
  - {x: 0, y: 0, z: -1, w: -1}
  - {x: 0, y: 0, z: -1, w: -1}
  - {x: 0, y: 0, z: -1, w: -1}
  - {x: 0, y: 0, z: -1, w: -1}
  - {x: 0, y: 0, z: -1, w: -1}
  - {x: 0, y: 0, z: -1, w: -1}
  - {x: 0, y: 0, z: -1, w: -1}
  - {x: -0.00000016689275, y: 1.15250695e-20, z: -1, w: -1}
  - {x: -0.00000016689275, y: 1.15250695e-20, z: -1, w: -1}
  - {x: -0.00000016689275, y: 1.15250695e-20, z: -1, w: -1}
  - {x: 0, y: 0, z: 1, w: -1}
  - {x: 0, y: 0, z: 1, w: -1}
  - {x: 0, y: 0, z: 1, w: -1}
  - {x: 0, y: 0, z: 1, w: -1}
  - {x: 0, y: 0, z: 1, w: -1}
  - {x: 0, y: 0, z: 1, w: -1}
  - {x: 0, y: 0, z: 1, w: -1}
  - {x: 0, y: 0, z: 1, w: -1}
  - {x: 0, y: 0, z: 1, w: -1}
  - {x: 0, y: 0, z: 1, w: -1}
  - {x: 0, y: 0, z: 1, w: -1}
  - {x: 0, y: 0, z: 1, w: -1}
  - {x: 0, y: 0, z: 1, w: -1}
  - {x: 0, y: 0, z: 1, w: -1}
  - {x: 0, y: 0, z: 1, w: -1}
  - {x: 0, y: 0, z: 1, w: -1}
  - {x: 0, y: 0, z: 1, w: -1}
  - {x: 0, y: 0, z: 1, w: -1}
  - {x: 0, y: 0, z: 1, w: -1}
  - {x: 0, y: 0, z: 1, w: -1}
  - {x: 0, y: 0, z: 1, w: -1}
  - {x: 0, y: 0, z: 1, w: -1}
  - {x: 0, y: 0, z: 1, w: -1}
  - {x: 0, y: 0, z: 1, w: -1}
  - {x: 0, y: 0, z: 1, w: -1}
  - {x: 0, y: 0, z: 1, w: -1}
  - {x: 0, y: 0, z: 1, w: -1}
  - {x: 0, y: 0, z: 1, w: -1}
  - {x: 0, y: 0, z: 1, w: -1}
  - {x: 0, y: 0, z: 1, w: -1}
  - {x: 0, y: 0, z: 1, w: -1}
  - {x: 0, y: 0, z: 1, w: -1}
  - {x: 0, y: 0, z: 1, w: -1}
  - {x: 0, y: 0, z: 1, w: -1}
  - {x: 0, y: 0, z: 1, w: -1}
  - {x: 0, y: 0, z: 1, w: -1}
  - {x: 0, y: 0, z: 1, w: -1}
  - {x: 0, y: 0, z: 1, w: -1}
  - {x: 0, y: 0, z: 1, w: -1}
  - {x: 0.00000008344651, y: 0, z: 1, w: -1}
  - {x: 0.00000008344651, y: 0, z: 1, w: -1}
  - {x: 0.00000008344651, y: 0, z: 1, w: -1}
  - {x: 0.000000083446515, y: 0, z: 1, w: -1}
  - {x: 0.000000059604645, y: 0, z: 1, w: -1}
  - {x: 0.000000059604645, y: 0, z: 1, w: -1}
  - {x: 0.000000059604645, y: 0, z: 1, w: -1}
  - {x: -1, y: 0, z: 0, w: -1}
  - {x: -1, y: 0, z: 0, w: -1}
  - {x: -1, y: 0, z: 0, w: -1}
  - {x: -1, y: 0, z: 0, w: -1}
  m_Colors: []
  m_UnwrapParameters:
    m_HardAngle: 88
    m_PackMargin: 20
    m_AngleError: 8
    m_AreaError: 15
  m_PreserveMeshAssetOnDestroy: 0
  assetGuid: 
  m_IsSelectable: 1
  m_SelectedFaces: 20000000
  m_SelectedEdges:
  - a: 121
    b: 120
  - a: 120
    b: 122
  - a: 122
    b: 123
  - a: 123
    b: 121
  m_SelectedVertices: 7a00000079000000780000007b000000
--- !u!64 &3212956886784242414
MeshCollider:
  m_ObjectHideFlags: 0
  m_CorrespondingSourceObject: {fileID: 0}
  m_PrefabInstance: {fileID: 0}
  m_PrefabAsset: {fileID: 0}
  m_GameObject: {fileID: 3212956886784242413}
  m_Material: {fileID: 0}
  m_IsTrigger: 0
  m_Enabled: 1
  serializedVersion: 3
  m_Convex: 0
  m_CookingOptions: 14
  m_Mesh: {fileID: 0}
