%YAML 1.1
%TAG !u! tag:unity3d.com,2011:
--- !u!21 &2100000
Material:
  serializedVersion: 6
  m_ObjectHideFlags: 0
  m_CorrespondingSourceObject: {fileID: 0}
  m_PrefabInstance: {fileID: 0}
  m_PrefabAsset: {fileID: 0}
  m_Name: FXM_CharacterGlowTest
  m_Shader: {fileID: 4800000, guid: e4090f8a08d3e504e9eabbee414e4e8e, type: 3}
  m_ShaderKeywords: 
  m_LightmapFlags: 0
  m_EnableInstancingVariants: 0
  m_DoubleSidedGI: 0
  m_CustomRenderQueue: -1
  stringTagMap: {}
  disabledShaderPasses: []
  m_SavedProperties:
    serializedVersion: 3
    m_TexEnvs:
    - _BumpMap:
        m_Texture: {fileID: 0}
        m_Scale: {x: 1, y: 1}
        m_Offset: {x: 0, y: 0}
    - _DetailAlbedoMap:
        m_Texture: {fileID: 0}
        m_Scale: {x: 1, y: 1}
        m_Offset: {x: 0, y: 0}
    - _DetailMask:
        m_Texture: {fileID: 0}
        m_Scale: {x: 1, y: 1}
        m_Offset: {x: 0, y: 0}
    - _DetailNormalMap:
        m_Texture: {fileID: 0}
        m_Scale: {x: 1, y: 1}
        m_Offset: {x: 0, y: 0}
    - _EmissionMap:
        m_Texture: {fileID: 0}
        m_Scale: {x: 1, y: 1}
        m_Offset: {x: 0, y: 0}
    - _Leyssa_lp_default_AlbedoTransparency:
        m_Texture: {fileID: 2800000, guid: d0ad62cf8f388e24b8c1777b10bc26e1, type: 3}
        m_Scale: {x: 1, y: 1}
        m_Offset: {x: 0, y: 0}
    - _Leyssa_lp_default_Emission:
        m_Texture: {fileID: 2800000, guid: 051e1603c0772ce468af895706d35335, type: 3}
        m_Scale: {x: 1, y: 1}
        m_Offset: {x: 0, y: 0}
    - _Leyssa_lp_default_MetallicSmoothness:
        m_Texture: {fileID: 2800000, guid: 7bf218b1cc237f9469e04317d9c1c0e1, type: 3}
        m_Scale: {x: 1, y: 1}
        m_Offset: {x: 0, y: 0}
    - _Leyssa_lp_default_Normal:
        m_Texture: {fileID: 2800000, guid: c69cbe252cd3ea745aef49964870d6a5, type: 3}
        m_Scale: {x: 1, y: 1}
        m_Offset: {x: 0, y: 0}
    - _MainTex:
        m_Texture: {fileID: 0}
        m_Scale: {x: 1, y: 1}
        m_Offset: {x: 0, y: 0}
    - _MetallicGlossMap:
        m_Texture: {fileID: 0}
        m_Scale: {x: 1, y: 1}
        m_Offset: {x: 0, y: 0}
    - _OcclusionMap:
        m_Texture: {fileID: 0}
        m_Scale: {x: 1, y: 1}
        m_Offset: {x: 0, y: 0}
    - _ParallaxMap:
        m_Texture: {fileID: 0}
        m_Scale: {x: 1, y: 1}
        m_Offset: {x: 0, y: 0}
    - _texcoord:
        m_Texture: {fileID: 0}
        m_Scale: {x: 1, y: 1}
        m_Offset: {x: 0, y: 0}
    - _texcoord2:
        m_Texture: {fileID: 0}
        m_Scale: {x: 1, y: 1}
        m_Offset: {x: 0, y: 0}
    m_Floats:
    - _BumpScale: 1
    - _Cutoff: 0.5
    - _DetailNormalMapScale: 1
    - _DstBlend: 0
    - _FaceshieldIntensity: -5.51
    - _Float0: 0.5
    - _Float1: 0
    - _FresnelStrength: 100
    - _GlossMapScale: 1
    - _Glossiness: 0.5
    - _GlossyReflections: 1
    - _Metallic: 0
    - _Mode: 0
    - _OcclusionStrength: 1
    - _Parallax: 0.02
    - _Power: 1
    - _ScrollSpeedX: 5
    - _ScrollSpeedY: 5
    - _ShieldStrength: 1
    - _SmoothnessTextureChannel: 0
    - _SpecularHighlights: 1
    - _SrcBlend: 1
    - _UVSec: 0
    - _ZWrite: 1
    - __dirty: 0
    m_Colors:
    - _Color: {r: 1, g: 1, b: 1, a: 1}
    - _Color0: {r: 0, g: 0, b: 0, a: 0}
    - _Colour: {r: 1, g: 0.75927067, b: 0, a: 0.9372549}
    - _EmissionColor: {r: 0, g: 0, b: 0, a: 1}
    - _FaceShield: {r: 42.224255, g: 7.3768926, b: 0, a: 1}
    - _Faceshield: {r: 0, g: 0, b: 0, a: 0}
    - _RimColour: {r: 1, g: 0.4102563, b: 0, a: 0.9372549}
    - _speedDirectionX: {r: 0, g: 0, b: 0, a: 0}
    - _speedDirectionY: {r: 0, g: 0, b: 0, a: 0}
